module hub.hsson.dev

go 1.14

require (
	github.com/dgrijalva/jwt-go v3.2.0+incompatible // indirect
	github.com/labstack/echo v3.3.10+incompatible
	github.com/labstack/gommon v0.3.0 // indirect
	golang.org/x/crypto v0.0.0-20200709230013-948cd5f35899 // indirect
)
